%YAML 1.1
%TAG !u! tag:unity3d.com,2011:
--- !u!114 &11400000
MonoBehaviour:
  m_ObjectHideFlags: 0
  m_PrefabParentObject: {fileID: 0}
  m_PrefabInternal: {fileID: 0}
  m_GameObject: {fileID: 0}
  m_Enabled: 1
  m_EditorHideFlags: 0
  m_Script: {fileID: 11500000, guid: 07782d64f13e4764bb560b443f3af594, type: 3}
  m_Name: LevelSettings3D
  m_EditorClassIdentifier: 
  LevelSettings:
    LevelObjectPrefab: {fileID: 114975584277411730, guid: ba3ca4befb5dfc04cb2f215b91073531,
      type: 2}
    PrefabData: {fileID: 11400000, guid: 2758ee2aeb8f09f4cbf8c6e692411e5e, type: 2}
    playerPrefab: {fileID: 0}
