%YAML 1.1
%TAG !u! tag:unity3d.com,2011:
--- !u!114 &11400000
MonoBehaviour:
  m_ObjectHideFlags: 0
  m_PrefabParentObject: {fileID: 0}
  m_PrefabInternal: {fileID: 0}
  m_GameObject: {fileID: 0}
  m_Enabled: 1
  m_EditorHideFlags: 0
  m_Script: {fileID: 11500000, guid: 14883a91f85f669428601b764bcf7496, type: 3}
  m_Name: LevelSettings
  m_EditorClassIdentifier: 
  LevelSettings:
    LevelObjectPrefab: {fileID: 114623784026348362, guid: ecd041f8fef16a047add26a0a4542a09,
      type: 2}
    SpriteData: {fileID: 11400000, guid: 8aecb6a3ca907664dbb6658ec897b2b2, type: 2}
    playerPrefab: {fileID: 114496321845161602, guid: 93060c9856668d64c8f22a6cc6d35525,
      type: 2}
